#include <cmath>
#include <cstdio>
#include <vector>
#include <iostream>
#include <algorithm>
using namespace std;


int main() {
    /* Enter your code here. Read input from STDIN. Print output to STDOUT */
    int n  = 0;
    cin >> n;
    long long int*p = new long long int[n];
    for(int i = 0 ;i<n;++i)
    {
       cin >> p[i];    
        
    }
    long long int sum = 0;
    for(int i = 0 ;i<n;++i)
    {
       sum+=p[i];       
    }
    cout<<sum;
    
    delete []p;
    
    return 0;
}