#include <cmath>
#include <cstdio>
#include <vector>
#include <iostream>
#include <algorithm>
using namespace std;

#include <cmath>
#include <cstdio>
#include <vector>
#include <iostream>
#include <algorithm>
using namespace std;



int main() {
    /* Enter your code here. Read input from STDIN. Print output to STDOUT */   
    int test ;
	cin >> test ;
	while(test--)
	{

		unsigned long num  ;
		cin >> num ;
		unsigned long num2  = num ;
		int count = 0 ;
		int rem  = 0 ;
		while(num>0)
		{
			rem  = num % 10 ;
			num  = num /10;
			if(rem != 0 && num2%rem == 0)
			{

				count++;
			}


		}
		cout<<count<<endl; 
	}
    return 0;
}